{
  "development": {
    "username": "postgres",
    "password": "admin",
    "database": "project_sayurhub",
    "host": "127.0.0.1",
    "dialect": "postgres"
  },
  "test": {
    "username": "postgres",
    "password": "root",
    "database": "database_test",
    "host": "127.0.0.1",
    "dialect": "mysql"
  },
  "production": {
    "username": "zslqzidsbxufbx",
    "password": "0c6b17e1d1ce22359d4dc0e784fc0b95c5a4e39b6e2cf81f043892020a3ef00d",
    "database": "d70t2kq873mf7g",
    "host": "ec2-54-160-18-230.compute-1.amazonaws.com",
    "dialect": "postgres"
  }
}
